20180101 23:01:05.001|1001|101|98|25|20|99.9|TSTAT
20180101 23:01:09.521|1000|17|15|9|8|7.8|BATT
20180101 23:01:26.011|1001|101|98|25|20|99.8|TSTAT
20180101 23:01:38.001|1000|101|98|25|20|102.9|TSTAT
20180101 23:01:49.021|1000|101|98|25|20|87.9|TSTAT
20180101 23:02:09.014|1001|101|98|25|20|89.3|TSTAT
20180101 23:02:10.021|1001|101|98|25|20|89.4|TSTAT
20180101 23:02:11.302|1000|17|15|9|8|7.7|BATT
20180101 23:03:03.008|1000|101|98|25|20|102.7|TSTAT
20180101 23:03:05.009|1000|101|98|25|20|101.2|TSTAT
20180101 23:04:06.017|1001|101|98|25|20|89.9|TSTAT
20180101 23:04:11.531|1000|17|15|9|8|7.9|BATT
20180101 23:05:05.021|1001|101|98|25|20|89.9|TSTAT
20180101 23:05:07.421|1001|17|15|9|8|7.9|BATT
20180101 23:06:06.521|1024|101|98|25|20|103.0|TSTAT
20180101 23:06:08.021|1024|101|98|25|20|86.5|TSTAT
20180101 23:06:09.411|1008|101|98|25|20|89.7|TSTAT
20180101 23:07:11.931|1024|17|15|9|8|7.6|BATT
20180101 23:08:05.031|1008|101|98|25|20|89.5|TSTAT
20180101 23:08:09.041|1008|101|98|25|20|89.6|TSTAT
20180101 23:08:11.351|1024|17|15|9|8|7.5|BATT
20180101 23:09:06.111|1024|101|98|25|20|102.5|TSTAT
20180101 23:09:08.321|1024|101|98|25|20|100.9|TSTAT
20180101 23:10:06.131|1008|101|98|25|20|90.0|TSTAT
20180101 23:10:07.331|1008|101|98|25|20|90.1|TSTAT
20180101 23:10:08.451|1024|101|98|25|20|104.1|TSTAT
20180101 23:10:09.921|1024|17|15|9|8|7.4|BATT
20180101 23:11:05.151|1008|101|98|25|20|90.2|TSTAT
20180101 23:12:06.551|1024|101|98|25|20|85.3|TSTAT
20180101 23:12:09.061|1024|17|15|9|8|7.3|BATT
20180101 23:13:05.251|1008|101|98|25|20|90.4|TSTAT
20180101 23:14:05.971|1024|101|98|25|20|103.7|TSTAT
20180101 23:14:09.381|1024|17|15|9|8|7.2|BATT
20180101 23:15:05.351|1008|101|98|25|20|90.5|TSTAT
20180101 23:15:08.661|1008|101|98|25|20|90.6|TSTAT
20180101 23:15:10.971|1024|17|15|9|8|7.1|BATT
20180101 23:16:06.971|1024|101|98|25|20|102.1|TSTAT
20180101 23:16:09.381|1024|101|98|25|20|100.5|TSTAT
20180101 23:17:06.381|1008|101|98|25|20|90.7|TSTAT